{
	"settings": {
		"number_of_shards": 1,
		"number_of_replicas": 0,
		"index.requests.cache.enable": true
	},
	"mappings": {
		"station": {
			"_all": {"enabled" : false},
			"dynamic": "strict",
			"properties": {
				"id": {
					"type": "string",
					"index": "not_analyzed"
				},
				"name": {
					"type": "string",
					"index": "not_analyzed"
				},
				"loc": {
					"type": "geo_point"
				}
			}
		}
	}
}
